…
```r
# calculate full summary stats for genome-wide Fst between locations
fst_sum_location <- fst_location_filt_snpfilt %>% 
  group_by(comparison) %>% 
  summarise(
    w_mean = weighted.mean(avg_hudson_fst, no_snps),  # pixy output doesn't give separate numerator and denominator values, so pooling isn't possible. Next best option is mean weighted by no_snps in window.
    median = median(avg_hudson_fst),
    sd = sd(avg_hudson_fst),
    q05 = quantile(avg_hudson_fst, 0.05),
    q95 = quantile(avg_hudson_fst, 0.95)
  ) %>% 
  arrange(desc(w_mean))
```
```
# A tibble: 45 × 6
   comparison w_mean median     sd      q05   q95
   <fct>       <dbl>  <dbl>  <dbl>    <dbl> <dbl>
 1 OFU3_VATI  0.0540 0.0425 0.0547 -0.00996 0.159
 2 MALO_OFU3  0.0503 0.0385 0.0594 -0.0186  0.163
 3 FTEL_OFU3  0.0497 0.0394 0.0474 -0.00443 0.142
 4 FASA_OFU3  0.0497 0.0378 0.0618 -0.0224  0.168
 5 AOAA_OFU3  0.0414 0.0318 0.0502 -0.0153  0.140
 6 ALOF_OFU3  0.0407 0.0317 0.0461 -0.0119  0.130
 7 LEON_OFU3  0.0396 0.0308 0.0475 -0.0131  0.131
 8 FALU_OFU3  0.0367 0.0272 0.0455 -0.0131  0.127
 9 FTEL_VATI  0.0333 0.0245 0.0395 -0.0130  0.109
10 FASA_FTEL  0.0297 0.0193 0.0475 -0.0247  0.119
# ℹ 35 more rows
```
…
